^C:\VISUAL STUDIO 2015\PROJECTS\12\ARRAYS ONE-DIM\ARRAYS ONE-DIM\MAIN.CPP
C:\VISUAL STUDIO 2015\PROJECTS\12\ARRAYS ONE-DIM\ARRAYS ONE-DIM\DEBUG\VC140.PDB
C:\VISUAL STUDIO 2015\PROJECTS\12\ARRAYS ONE-DIM\ARRAYS ONE-DIM\DEBUG\VC140.IDB
C:\VISUAL STUDIO 2015\PROJECTS\12\ARRAYS ONE-DIM\ARRAYS ONE-DIM\DEBUG\MAIN.OBJ
