^C:\USERS\ROGA_V70\DESKTOP\ACADEMY GROUP\ACADEMY GROUP\X64\DEBUG\CACADEMYGROUP.OBJ|C:\USERS\ROGA_V70\DESKTOP\ACADEMY GROUP\ACADEMY GROUP\X64\DEBUG\CSTUDENT.OBJ|C:\USERS\ROGA_V70\DESKTOP\ACADEMY GROUP\ACADEMY GROUP\X64\DEBUG\MAIN.OBJ
/OUT:"C:\USERS\ROGA_V70\DESKTOP\ACADEMY GROUP\X64\DEBUG\ACADEMY GROUP.EXE" /INCREMENTAL /NOLOGO KERNEL32.LIB USER32.LIB GDI32.LIB WINSPOOL.LIB COMDLG32.LIB ADVAPI32.LIB SHELL32.LIB OLE32.LIB OLEAUT32.LIB UUID.LIB ODBC32.LIB ODBCCP32.LIB /MANIFEST /MANIFESTUAC:"level='asInvoker' uiAccess='false'" /manifest:embed /DEBUG:FASTLINK /PDB:"C:\USERS\ROGA_V70\DESKTOP\ACADEMY GROUP\X64\DEBUG\ACADEMY GROUP.PDB" /SUBSYSTEM:CONSOLE /TLBID:1 /DYNAMICBASE /NXCOMPAT /IMPLIB:"C:\USERS\ROGA_V70\DESKTOP\ACADEMY GROUP\X64\DEBUG\ACADEMY GROUP.LIB" /MACHINE:X64 X64\DEBUG\CACADEMYGROUP.OBJX64\DEBUG\CSTUDENT.OBJX64\DEBUG\MAIN.OBJ
^C:\VISUAL STUDIO 2015\PROJECTS\ООП C++\02\ACADEMY GROUP\ACADEMY GROUP\X64\DEBUG\CACADEMYGROUP.OBJ|C:\VISUAL STUDIO 2015\PROJECTS\ООП C++\02\ACADEMY GROUP\ACADEMY GROUP\X64\DEBUG\CSTUDENT.OBJ|C:\VISUAL STUDIO 2015\PROJECTS\ООП C++\02\ACADEMY GROUP\ACADEMY GROUP\X64\DEBUG\MAIN.OBJ
/OUT:"C:\VISUAL STUDIO 2015\PROJECTS\ООП C++\02\ACADEMY GROUP\X64\DEBUG\ACADEMY GROUP.EXE" /INCREMENTAL /NOLOGO /LIBPATH:"C:\PROGRAM FILES (X86)\VISUAL LEAK DETECTOR\LIB\WIN64" KERNEL32.LIB USER32.LIB GDI32.LIB WINSPOOL.LIB COMDLG32.LIB ADVAPI32.LIB SHELL32.LIB OLE32.LIB OLEAUT32.LIB UUID.LIB ODBC32.LIB ODBCCP32.LIB /MANIFEST /MANIFESTUAC:"level='asInvoker' uiAccess='false'" /manifest:embed /DEBUG /PDB:"C:\VISUAL STUDIO 2015\PROJECTS\ООП C++\02\ACADEMY GROUP\X64\DEBUG\ACADEMY GROUP.PDB" /SUBSYSTEM:CONSOLE /TLBID:1 /DYNAMICBASE /NXCOMPAT /IMPLIB:"C:\VISUAL STUDIO 2015\PROJECTS\ООП C++\02\ACADEMY GROUP\X64\DEBUG\ACADEMY GROUP.LIB" /MACHINE:X64 X64\DEBUG\CACADEMYGROUP.OBJX64\DEBUG\CSTUDENT.OBJX64\DEBUG\MAIN.OBJ
^C:\VISUAL STUDIO 2015\PROJECTS\ООП C++\02\NEW ACADEMY GROUP\ACADEMY GROUP\X64\DEBUG\CACADEMYGROUP.OBJ|C:\VISUAL STUDIO 2015\PROJECTS\ООП C++\02\NEW ACADEMY GROUP\ACADEMY GROUP\X64\DEBUG\CSTUDENT.OBJ|C:\VISUAL STUDIO 2015\PROJECTS\ООП C++\02\NEW ACADEMY GROUP\ACADEMY GROUP\X64\DEBUG\MAIN.OBJ
/OUT:"C:\VISUAL STUDIO 2015\PROJECTS\ООП C++\02\NEW ACADEMY GROUP\X64\DEBUG\ACADEMY GROUP.EXE" /INCREMENTAL /NOLOGO /LIBPATH:"C:\PROGRAM FILES (X86)\VISUAL LEAK DETECTOR\LIB\WIN64" KERNEL32.LIB USER32.LIB GDI32.LIB WINSPOOL.LIB COMDLG32.LIB ADVAPI32.LIB SHELL32.LIB OLE32.LIB OLEAUT32.LIB UUID.LIB ODBC32.LIB ODBCCP32.LIB /MANIFEST /MANIFESTUAC:"level='asInvoker' uiAccess='false'" /manifest:embed /DEBUG /PDB:"C:\VISUAL STUDIO 2015\PROJECTS\ООП C++\02\NEW ACADEMY GROUP\X64\DEBUG\ACADEMY GROUP.PDB" /SUBSYSTEM:CONSOLE /TLBID:1 /DYNAMICBASE /NXCOMPAT /IMPLIB:"C:\VISUAL STUDIO 2015\PROJECTS\ООП C++\02\NEW ACADEMY GROUP\X64\DEBUG\ACADEMY GROUP.LIB" /MACHINE:X64 X64\DEBUG\CACADEMYGROUP.OBJX64\DEBUG\CSTUDENT.OBJX64\DEBUG\MAIN.OBJ
^C:\USERS\ROGA_V70\DESKTOP\NEW ACADEMY GROUP\ACADEMY GROUP\X64\DEBUG\CACADEMYGROUP.OBJ|C:\USERS\ROGA_V70\DESKTOP\NEW ACADEMY GROUP\ACADEMY GROUP\X64\DEBUG\CSTUDENT.OBJ|C:\USERS\ROGA_V70\DESKTOP\NEW ACADEMY GROUP\ACADEMY GROUP\X64\DEBUG\MAIN.OBJ
/OUT:"C:\USERS\ROGA_V70\DESKTOP\NEW ACADEMY GROUP\X64\DEBUG\ACADEMY GROUP.EXE" /INCREMENTAL /NOLOGO KERNEL32.LIB USER32.LIB GDI32.LIB WINSPOOL.LIB COMDLG32.LIB ADVAPI32.LIB SHELL32.LIB OLE32.LIB OLEAUT32.LIB UUID.LIB ODBC32.LIB ODBCCP32.LIB /MANIFEST /MANIFESTUAC:"level='asInvoker' uiAccess='false'" /manifest:embed /DEBUG:FASTLINK /PDB:"C:\USERS\ROGA_V70\DESKTOP\NEW ACADEMY GROUP\X64\DEBUG\ACADEMY GROUP.PDB" /SUBSYSTEM:CONSOLE /TLBID:1 /DYNAMICBASE /NXCOMPAT /IMPLIB:"C:\USERS\ROGA_V70\DESKTOP\NEW ACADEMY GROUP\X64\DEBUG\ACADEMY GROUP.LIB" /MACHINE:X64 X64\DEBUG\CACADEMYGROUP.OBJX64\DEBUG\CSTUDENT.OBJX64\DEBUG\MAIN.OBJ
