^D:\VISUAL STUDIO\REPOS\06.SINGLE-LINKED LIST\SINGLE-LINKED LIST\LIST\DEBUG\MAIN.OBJ
D:\VISUAL STUDIO\REPOS\06.SINGLE-LINKED LIST\SINGLE-LINKED LIST\LIST\DEBUG\LIST.EXE
D:\VISUAL STUDIO\REPOS\06.SINGLE-LINKED LIST\SINGLE-LINKED LIST\LIST\DEBUG\LIST.PDB
^D:\VISUAL STUDIO\PROJECTS\ООП C++\10.SINGLE-LINKED LIST\LIST\DEBUG\MAIN.OBJ
D:\VISUAL STUDIO\PROJECTS\ООП C++\10.SINGLE-LINKED LIST\LIST\DEBUG\LIST.EXE
D:\VISUAL STUDIO\PROJECTS\ООП C++\10.SINGLE-LINKED LIST\LIST\DEBUG\LIST.PDB
