^C:\VISUAL STUDIO 2015\PROJECTS\2\2.EQUATION\2.EQUATION\DEBUG\MAIN.OBJ
C:\VISUAL STUDIO 2015\PROJECTS\2\2.EQUATION\DEBUG\2.EQUATION.ILK
C:\VISUAL STUDIO 2015\PROJECTS\2\2.EQUATION\DEBUG\2.EQUATION.EXE
C:\VISUAL STUDIO 2015\PROJECTS\2\2.EQUATION\DEBUG\2.EQUATION.PDB
^D:\ПРОГРАММИРОВАНИЕ\ШАГ\ДЗ\C\2.ВВОД ДАННЫХ.АРИФМЕТИЧЕСКИЕ ОПЕРАТОРЫ\ДЗ2 VADYM ROGACHKO\2.EQUATION\2.EQUATION\DEBUG\MAIN.OBJ
D:\Программирование\ШАГ\ДЗ\C\2.Ввод данных.Арифметические операторы\ДЗ2 VADYM ROGACHKO\2.EQUATION\DEBUG\2.EQUATION.ILK
D:\Программирование\ШАГ\ДЗ\C\2.Ввод данных.Арифметические операторы\ДЗ2 VADYM ROGACHKO\2.EQUATION\DEBUG\2.EQUATION.EXE
D:\ПРОГРАММИРОВАНИЕ\ШАГ\ДЗ\C\2.ВВОД ДАННЫХ.АРИФМЕТИЧЕСКИЕ ОПЕРАТОРЫ\ДЗ2 VADYM ROGACHKO\2.EQUATION\DEBUG\2.EQUATION.PDB
