^C:\VISUAL STUDIO 2015\PROJECTS\22\REFERENCES\REFERENCES\FUNCTIONS.CPP
/c /ZI /nologo /W3 /WX- /sdl /Od /Oy- /D WIN32 /D _DEBUG /D _CONSOLE /D _UNICODE /D UNICODE /Gm /EHsc /RTC1 /MDd /GS /fp:precise /Zc:wchar_t /Zc:forScope /Zc:inline /Fo"DEBUG\\" /Fd"DEBUG\VC140.PDB" /Gd /TP /analyze- C:\VISUAL STUDIO 2015\PROJECTS\22\REFERENCES\REFERENCES\FUNCTIONS.CPP
^C:\VISUAL STUDIO 2015\PROJECTS\22\REFERENCES\REFERENCES\MAIN.CPP
/c /ZI /nologo /W3 /WX- /sdl /Od /Oy- /D WIN32 /D _DEBUG /D _CONSOLE /D _UNICODE /D UNICODE /Gm /EHsc /RTC1 /MDd /GS /fp:precise /Zc:wchar_t /Zc:forScope /Zc:inline /Fo"DEBUG\\" /Fd"DEBUG\VC140.PDB" /Gd /TP /analyze- C:\VISUAL STUDIO 2015\PROJECTS\22\REFERENCES\REFERENCES\MAIN.CPP
