^C:\VISUAL STUDIO 2015\PROJECTS\22\REFERENCES\REFERENCES\DEBUG\FUNCTIONS.OBJ|C:\VISUAL STUDIO 2015\PROJECTS\22\REFERENCES\REFERENCES\DEBUG\MAIN.OBJ
C:\VISUAL STUDIO 2015\PROJECTS\22\REFERENCES\DEBUG\REFERENCES.ILK
C:\VISUAL STUDIO 2015\PROJECTS\22\REFERENCES\DEBUG\REFERENCES.EXE
C:\VISUAL STUDIO 2015\PROJECTS\22\REFERENCES\DEBUG\REFERENCES.PDB
