^C:\VISUAL STUDIO 2015\PROJECTS\17\FUNCTIONS\FUNCTIONS\DEBUG\MAIN.OBJ
C:\VISUAL STUDIO 2015\PROJECTS\17\FUNCTIONS\DEBUG\FUNCTIONS.ILK
C:\VISUAL STUDIO 2015\PROJECTS\17\FUNCTIONS\DEBUG\FUNCTIONS.EXE
C:\VISUAL STUDIO 2015\PROJECTS\17\FUNCTIONS\DEBUG\FUNCTIONS.PDB
