^C:\VISUAL STUDIO 2015\PROJECTS\0\RANDOM\RANDOM\DEBUG\MAIN.OBJ
C:\VISUAL STUDIO 2015\PROJECTS\0\RANDOM\DEBUG\RANDOM.ILK
C:\VISUAL STUDIO 2015\PROJECTS\0\RANDOM\DEBUG\RANDOM.EXE
C:\VISUAL STUDIO 2015\PROJECTS\0\RANDOM\DEBUG\RANDOM.PDB
