^D:\VISUAL STUDIO\PROJECTS\C C++\25\STRUCTURES\STRUCTURES\DEBUG\FUNCTIONS.OBJ|D:\VISUAL STUDIO\PROJECTS\C C++\25\STRUCTURES\STRUCTURES\DEBUG\JOURNAL.OBJ|D:\VISUAL STUDIO\PROJECTS\C C++\25\STRUCTURES\STRUCTURES\DEBUG\MAIN.OBJ
D:\VISUAL STUDIO\PROJECTS\C C++\25\STRUCTURES\DEBUG\STRUCTURES.ILK
D:\VISUAL STUDIO\PROJECTS\C C++\25\STRUCTURES\DEBUG\STRUCTURES.EXE
D:\VISUAL STUDIO\PROJECTS\C C++\25\STRUCTURES\DEBUG\STRUCTURES.PDB
