^C:\VISUAL STUDIO 2015\PROJECTS\7\ENUM\ENUM\MAIN.CPP
C:\VISUAL STUDIO 2015\PROJECTS\7\ENUM\ENUM\DEBUG\VC140.PDB
C:\VISUAL STUDIO 2015\PROJECTS\7\ENUM\ENUM\DEBUG\VC140.IDB
C:\VISUAL STUDIO 2015\PROJECTS\7\ENUM\ENUM\DEBUG\MAIN.OBJ
