^C:\VISUAL STUDIO 2015\PROJECTS\2\9.DIAMETR\9.DIAMETR\MAIN.CPP
C:\VISUAL STUDIO 2015\PROJECTS\2\9.DIAMETR\9.DIAMETR\DEBUG\VC140.PDB
C:\VISUAL STUDIO 2015\PROJECTS\2\9.DIAMETR\9.DIAMETR\DEBUG\VC140.IDB
C:\VISUAL STUDIO 2015\PROJECTS\2\9.DIAMETR\9.DIAMETR\DEBUG\MAIN.OBJ
^D:\ПРОГРАММИРОВАНИЕ\ШАГ\ДЗ\C\2.ВВОД ДАННЫХ.АРИФМЕТИЧЕСКИЕ ОПЕРАТОРЫ\ДЗ2 VADYM ROGACHKO\9.DIAMETR\9.DIAMETR\MAIN.CPP
D:\Программирование\ШАГ\ДЗ\C\2.Ввод данных.Арифметические операторы\ДЗ2 VADYM ROGACHKO\9.DIAMETR\9.DIAMETR\DEBUG\VC140.PDB
D:\Программирование\ШАГ\ДЗ\C\2.Ввод данных.Арифметические операторы\ДЗ2 VADYM ROGACHKO\9.DIAMETR\9.DIAMETR\DEBUG\VC140.IDB
D:\Программирование\ШАГ\ДЗ\C\2.Ввод данных.Арифметические операторы\ДЗ2 VADYM ROGACHKO\9.DIAMETR\9.DIAMETR\DEBUG\MAIN.OBJ
