^D:\VISUAL STUDIO\REPOS\01\ACADEMY GROUP\ACADEMY GROUP\X64\DEBUG\CACADEMYGROUP.OBJ|D:\VISUAL STUDIO\REPOS\01\ACADEMY GROUP\ACADEMY GROUP\X64\DEBUG\CSTUDENT.OBJ|D:\VISUAL STUDIO\REPOS\01\ACADEMY GROUP\ACADEMY GROUP\X64\DEBUG\MAIN.OBJ
D:\VISUAL STUDIO\REPOS\01\ACADEMY GROUP\X64\DEBUG\ACADEMY GROUP.ILK
D:\VISUAL STUDIO\REPOS\01\ACADEMY GROUP\X64\DEBUG\ACADEMY GROUP.EXE
D:\VISUAL STUDIO\REPOS\01\ACADEMY GROUP\X64\DEBUG\ACADEMY GROUP.PDB
^D:\VISUAL STUDIO\PROJECTS\ООП C++\06.ACADEMY GROUP\ACADEMY GROUP\ACADEMY GROUP\X64\DEBUG\CACADEMYGROUP.OBJ|D:\VISUAL STUDIO\PROJECTS\ООП C++\06.ACADEMY GROUP\ACADEMY GROUP\ACADEMY GROUP\X64\DEBUG\CSTUDENT.OBJ|D:\VISUAL STUDIO\PROJECTS\ООП C++\06.ACADEMY GROUP\ACADEMY GROUP\ACADEMY GROUP\X64\DEBUG\MAIN.OBJ
D:\VISUAL STUDIO\PROJECTS\ООП C++\06.ACADEMY GROUP\ACADEMY GROUP\X64\DEBUG\ACADEMY GROUP.ILK
D:\VISUAL STUDIO\PROJECTS\ООП C++\06.ACADEMY GROUP\ACADEMY GROUP\X64\DEBUG\ACADEMY GROUP.EXE
D:\VISUAL STUDIO\PROJECTS\ООП C++\06.ACADEMY GROUP\ACADEMY GROUP\X64\DEBUG\ACADEMY GROUP.PDB
