^C:\VISUAL STUDIO 2015\PROJECTS\HELLO\HELLO\DEBUG\MAIN.OBJ
C:\VISUAL STUDIO 2015\PROJECTS\HELLO\DEBUG\HELLO.ILK
C:\VISUAL STUDIO 2015\PROJECTS\HELLO\DEBUG\HELLO.EXE
C:\VISUAL STUDIO 2015\PROJECTS\HELLO\DEBUG\HELLO.PDB
