^C:\VISUAL STUDIO 2015\PROJECTS\3\PHRASE\PHRASE\MAIN.CPP
C:\VISUAL STUDIO 2015\PROJECTS\3\PHRASE\PHRASE\DEBUG\VC140.PDB
C:\VISUAL STUDIO 2015\PROJECTS\3\PHRASE\PHRASE\DEBUG\VC140.IDB
C:\VISUAL STUDIO 2015\PROJECTS\3\PHRASE\PHRASE\DEBUG\MAIN.OBJ
