^C:\VISUAL STUDIO 2015\PROJECTS\3\PHRASE\PHRASE\DEBUG\MAIN.OBJ
C:\VISUAL STUDIO 2015\PROJECTS\3\PHRASE\DEBUG\PHRASE.ILK
C:\VISUAL STUDIO 2015\PROJECTS\3\PHRASE\DEBUG\PHRASE.EXE
C:\VISUAL STUDIO 2015\PROJECTS\3\PHRASE\DEBUG\PHRASE.PDB
