^D:\VISUAL STUDIO\REPOS\05\TEMPLATE CLASSES\TEMPLATE CLASSES\MATRIX\MAIN.CPP
D:\VISUAL STUDIO\REPOS\05\TEMPLATE CLASSES\TEMPLATE CLASSES\MATRIX\DEBUG\VC141.PDB
D:\VISUAL STUDIO\REPOS\05\TEMPLATE CLASSES\TEMPLATE CLASSES\MATRIX\DEBUG\VC141.IDB
D:\VISUAL STUDIO\REPOS\05\TEMPLATE CLASSES\TEMPLATE CLASSES\MATRIX\DEBUG\MAIN.OBJ
^D:\VISUAL STUDIO\REPOS\05\TEMPLATE CLASSES\TEMPLATE CLASSES\MATRIX\CFRACTION.CPP|D:\VISUAL STUDIO\REPOS\05\TEMPLATE CLASSES\TEMPLATE CLASSES\MATRIX\MAIN.CPP
D:\VISUAL STUDIO\REPOS\05\TEMPLATE CLASSES\TEMPLATE CLASSES\MATRIX\DEBUG\VC141.PDB
D:\VISUAL STUDIO\REPOS\05\TEMPLATE CLASSES\TEMPLATE CLASSES\MATRIX\DEBUG\VC141.IDB
D:\VISUAL STUDIO\REPOS\05\TEMPLATE CLASSES\TEMPLATE CLASSES\MATRIX\DEBUG\CFRACTION.OBJ
D:\VISUAL STUDIO\REPOS\05\TEMPLATE CLASSES\TEMPLATE CLASSES\MATRIX\DEBUG\MAIN.OBJ
^D:\VISUAL STUDIO\REPOS\05\TEMPLATE CLASSES\TEMPLATE CLASSES\MATRIX\CFRACTION.CPP
D:\VISUAL STUDIO\REPOS\05\TEMPLATE CLASSES\TEMPLATE CLASSES\MATRIX\DEBUG\VC141.PDB
D:\VISUAL STUDIO\REPOS\05\TEMPLATE CLASSES\TEMPLATE CLASSES\MATRIX\DEBUG\VC141.IDB
D:\VISUAL STUDIO\REPOS\05\TEMPLATE CLASSES\TEMPLATE CLASSES\MATRIX\DEBUG\CFRACTION.OBJ
^D:\VISUAL STUDIO\PROJECTS\ООП C++\08.TEMPLATE CLASSES\TEMPLATE CLASSES - STANDART MEMORY ALLOCATION\MATRIX\CFRACTION.CPP|D:\VISUAL STUDIO\PROJECTS\ООП C++\08.TEMPLATE CLASSES\TEMPLATE CLASSES - STANDART MEMORY ALLOCATION\MATRIX\MAIN.CPP
D:\VISUAL STUDIO\PROJECTS\ООП C++\08.TEMPLATE CLASSES\TEMPLATE CLASSES - STANDART MEMORY ALLOCATION\MATRIX\DEBUG\VC141.PDB
D:\VISUAL STUDIO\PROJECTS\ООП C++\08.TEMPLATE CLASSES\TEMPLATE CLASSES - STANDART MEMORY ALLOCATION\MATRIX\DEBUG\VC141.IDB
D:\VISUAL STUDIO\PROJECTS\ООП C++\08.TEMPLATE CLASSES\TEMPLATE CLASSES - STANDART MEMORY ALLOCATION\MATRIX\DEBUG\CFRACTION.OBJ
D:\VISUAL STUDIO\PROJECTS\ООП C++\08.TEMPLATE CLASSES\TEMPLATE CLASSES - STANDART MEMORY ALLOCATION\MATRIX\DEBUG\MAIN.OBJ
^D:\VISUAL STUDIO\PROJECTS\ООП C++\08.TEMPLATE CLASSES\TEMPLATE CLASSES - STANDART MEMORY ALLOCATION\MATRIX\CFRACTION.CPP
D:\VISUAL STUDIO\PROJECTS\ООП C++\08.TEMPLATE CLASSES\TEMPLATE CLASSES - STANDART MEMORY ALLOCATION\MATRIX\DEBUG\VC141.PDB
^D:\VISUAL STUDIO\PROJECTS\ООП C++\08.TEMPLATE CLASSES\TEMPLATE CLASSES - STANDART MEMORY ALLOCATION\MATRIX\MAIN.CPP
D:\VISUAL STUDIO\PROJECTS\ООП C++\08.TEMPLATE CLASSES\TEMPLATE CLASSES - STANDART MEMORY ALLOCATION\MATRIX\DEBUG\VC141.PDB
D:\VISUAL STUDIO\PROJECTS\ООП C++\08.TEMPLATE CLASSES\TEMPLATE CLASSES - STANDART MEMORY ALLOCATION\MATRIX\DEBUG\VC141.IDB
D:\VISUAL STUDIO\PROJECTS\ООП C++\08.TEMPLATE CLASSES\TEMPLATE CLASSES - STANDART MEMORY ALLOCATION\MATRIX\DEBUG\MAIN.OBJ
