^C:\VISUAL STUDIO 2015\PROJECTS\3\SHIFT2\SHIFT2\MAIN.CPP
/c /ZI /nologo /W3 /WX- /sdl /Od /Oy- /D WIN32 /D _DEBUG /D _CONSOLE /D _UNICODE /D UNICODE /Gm /EHsc /RTC1 /MDd /GS /fp:precise /Zc:wchar_t /Zc:forScope /Zc:inline /Fo"DEBUG\\" /Fd"DEBUG\VC140.PDB" /Gd /TP /analyze- C:\VISUAL STUDIO 2015\PROJECTS\3\SHIFT2\SHIFT2\MAIN.CPP
^D:\ПРОГРАММИРОВАНИЕ\ШАГ\ДЗ\C\3.ВВОД ДАННЫХ.АРИФМЕТИЧЕСКИЕ ОПЕРАТОРЫ\10.SHIFT2\SHIFT2\MAIN.CPP
/c /ZI /nologo /W3 /WX- /sdl /Od /Oy- /D WIN32 /D _DEBUG /D _CONSOLE /D _UNICODE /D UNICODE /Gm /EHsc /RTC1 /MDd /GS /fp:precise /Zc:wchar_t /Zc:forScope /Zc:inline /Fo"DEBUG\\" /Fd"DEBUG\VC140.PDB" /Gd /TP /analyze- D:\ПРОГРАММИРОВАНИЕ\ШАГ\ДЗ\C\3.ВВОД ДАННЫХ.АРИФМЕТИЧЕСКИЕ ОПЕРАТОРЫ\10.SHIFT2\SHIFT2\MAIN.CPP
^C:\VISUAL STUDIO 2015\PROJECTS\3\ИСПРАВЛЕНИЕ\10.SHIFT2\SHIFT2\MAIN.CPP
/c /ZI /nologo /W3 /WX- /sdl /Od /Oy- /D WIN32 /D _DEBUG /D _CONSOLE /D _UNICODE /D UNICODE /Gm /EHsc /RTC1 /MDd /GS /fp:precise /Zc:wchar_t /Zc:forScope /Zc:inline /Fo"DEBUG\\" /Fd"DEBUG\VC140.PDB" /Gd /TP /analyze- C:\VISUAL STUDIO 2015\PROJECTS\3\ИСПРАВЛЕНИЕ\10.SHIFT2\SHIFT2\MAIN.CPP
