^C:\VISUAL STUDIO 2015\PROJECTS\8\WHILE\WHILE\DEBUG\MAIN.OBJ
/OUT:"C:\VISUAL STUDIO 2015\PROJECTS\8\WHILE\DEBUG\WHILE.EXE" /INCREMENTAL /NOLOGO KERNEL32.LIB USER32.LIB GDI32.LIB WINSPOOL.LIB COMDLG32.LIB ADVAPI32.LIB SHELL32.LIB OLE32.LIB OLEAUT32.LIB UUID.LIB ODBC32.LIB ODBCCP32.LIB /MANIFEST /MANIFESTUAC:"level='asInvoker' uiAccess='false'" /manifest:embed /DEBUG /PDB:"C:\VISUAL STUDIO 2015\PROJECTS\8\WHILE\DEBUG\WHILE.PDB" /SUBSYSTEM:CONSOLE /TLBID:1 /DYNAMICBASE /NXCOMPAT /IMPLIB:"C:\VISUAL STUDIO 2015\PROJECTS\8\WHILE\DEBUG\WHILE.LIB" /MACHINE:X86 DEBUG\MAIN.OBJ
^C:\VISUAL STUDIO 2015\PROJECTS\C C++\08\WHILE\WHILE\DEBUG\MAIN.OBJ
/OUT:"C:\VISUAL STUDIO 2015\PROJECTS\C C++\08\WHILE\DEBUG\WHILE.EXE" /INCREMENTAL /NOLOGO /LIBPATH:"C:\PROGRAM FILES (X86)\VISUAL LEAK DETECTOR\LIB\WIN32" KERNEL32.LIB USER32.LIB GDI32.LIB WINSPOOL.LIB COMDLG32.LIB ADVAPI32.LIB SHELL32.LIB OLE32.LIB OLEAUT32.LIB UUID.LIB ODBC32.LIB ODBCCP32.LIB /MANIFEST /MANIFESTUAC:"level='asInvoker' uiAccess='false'" /manifest:embed /DEBUG /PDB:"C:\VISUAL STUDIO 2015\PROJECTS\C C++\08\WHILE\DEBUG\WHILE.PDB" /SUBSYSTEM:CONSOLE /TLBID:1 /DYNAMICBASE /NXCOMPAT /IMPLIB:"C:\VISUAL STUDIO 2015\PROJECTS\C C++\08\WHILE\DEBUG\WHILE.LIB" /MACHINE:X86 DEBUG\MAIN.OBJ
