^C:\VISUAL STUDIO 2015\PROJECTS\14\ARRAYS SORTING AND SEARCHING\ARRAYS SORTING AND SEARCHING\MAIN.CPP
C:\VISUAL STUDIO 2015\PROJECTS\14\ARRAYS SORTING AND SEARCHING\ARRAYS SORTING AND SEARCHING\DEBUG\VC140.PDB
C:\VISUAL STUDIO 2015\PROJECTS\14\ARRAYS SORTING AND SEARCHING\ARRAYS SORTING AND SEARCHING\DEBUG\VC140.IDB
C:\VISUAL STUDIO 2015\PROJECTS\14\ARRAYS SORTING AND SEARCHING\ARRAYS SORTING AND SEARCHING\DEBUG\MAIN.OBJ
