^C:\VISUAL STUDIO 2015\PROJECTS\14\ARRAYS SORTING AND SEARCHING\ARRAYS SORTING AND SEARCHING\DEBUG\MAIN.OBJ
C:\VISUAL STUDIO 2015\PROJECTS\14\ARRAYS SORTING AND SEARCHING\DEBUG\ARRAYS SORTING AND SEARCHING.ILK
C:\VISUAL STUDIO 2015\PROJECTS\14\ARRAYS SORTING AND SEARCHING\DEBUG\ARRAYS SORTING AND SEARCHING.EXE
C:\VISUAL STUDIO 2015\PROJECTS\14\ARRAYS SORTING AND SEARCHING\DEBUG\ARRAYS SORTING AND SEARCHING.PDB
