^D:\VISUAL STUDIO\PROJECTS\REPOS\C++ OOP\14.POLYMORPHISM\POLYMORPHISM\CONSOLE.CPP
/c /I"C:\PROGRAM FILES (X86)\VISUAL LEAK DETECTOR\INCLUDE" /ZI /nologo /W3 /WX- /diagnostics:classic /Od /D _DEBUG /D _CONSOLE /D _UNICODE /D UNICODE /Gm /EHsc /RTC1 /MDd /GS /fp:precise /Zc:wchar_t /Zc:forScope /Zc:inline /Fo"X64\DEBUG\\" /Fd"X64\DEBUG\VC141.PDB" /FR"x64\Debug\\" /Gd /TP D:\VISUAL STUDIO\PROJECTS\REPOS\C++ OOP\14.POLYMORPHISM\POLYMORPHISM\CONSOLE.CPP
^D:\VISUAL STUDIO\PROJECTS\REPOS\C++ OOP\14.POLYMORPHISM\POLYMORPHISM\DATASTORAGE.CPP
/c /I"C:\PROGRAM FILES (X86)\VISUAL LEAK DETECTOR\INCLUDE" /ZI /nologo /W3 /WX- /diagnostics:classic /Od /D _DEBUG /D _CONSOLE /D _UNICODE /D UNICODE /Gm /EHsc /RTC1 /MDd /GS /fp:precise /Zc:wchar_t /Zc:forScope /Zc:inline /Fo"X64\DEBUG\\" /Fd"X64\DEBUG\VC141.PDB" /FR"x64\Debug\\" /Gd /TP D:\VISUAL STUDIO\PROJECTS\REPOS\C++ OOP\14.POLYMORPHISM\POLYMORPHISM\DATASTORAGE.CPP
^D:\VISUAL STUDIO\PROJECTS\REPOS\C++ OOP\14.POLYMORPHISM\POLYMORPHISM\DVD.CPP
/c /I"C:\PROGRAM FILES (X86)\VISUAL LEAK DETECTOR\INCLUDE" /ZI /nologo /W3 /WX- /diagnostics:classic /Od /D _DEBUG /D _CONSOLE /D _UNICODE /D UNICODE /Gm /EHsc /RTC1 /MDd /GS /fp:precise /Zc:wchar_t /Zc:forScope /Zc:inline /Fo"X64\DEBUG\\" /Fd"X64\DEBUG\VC141.PDB" /FR"x64\Debug\\" /Gd /TP D:\VISUAL STUDIO\PROJECTS\REPOS\C++ OOP\14.POLYMORPHISM\POLYMORPHISM\DVD.CPP
^D:\VISUAL STUDIO\PROJECTS\REPOS\C++ OOP\14.POLYMORPHISM\POLYMORPHISM\HDDPORTABLE.CPP
/c /I"C:\PROGRAM FILES (X86)\VISUAL LEAK DETECTOR\INCLUDE" /ZI /nologo /W3 /WX- /diagnostics:classic /Od /D _DEBUG /D _CONSOLE /D _UNICODE /D UNICODE /Gm /EHsc /RTC1 /MDd /GS /fp:precise /Zc:wchar_t /Zc:forScope /Zc:inline /Fo"X64\DEBUG\\" /Fd"X64\DEBUG\VC141.PDB" /FR"x64\Debug\\" /Gd /TP D:\VISUAL STUDIO\PROJECTS\REPOS\C++ OOP\14.POLYMORPHISM\POLYMORPHISM\HDDPORTABLE.CPP
^D:\VISUAL STUDIO\PROJECTS\REPOS\C++ OOP\14.POLYMORPHISM\POLYMORPHISM\LISTDATASTORAGE.CPP
/c /I"C:\PROGRAM FILES (X86)\VISUAL LEAK DETECTOR\INCLUDE" /ZI /nologo /W3 /WX- /diagnostics:classic /Od /D _DEBUG /D _CONSOLE /D _UNICODE /D UNICODE /Gm /EHsc /RTC1 /MDd /GS /fp:precise /Zc:wchar_t /Zc:forScope /Zc:inline /Fo"X64\DEBUG\\" /Fd"X64\DEBUG\VC141.PDB" /FR"x64\Debug\\" /Gd /TP D:\VISUAL STUDIO\PROJECTS\REPOS\C++ OOP\14.POLYMORPHISM\POLYMORPHISM\LISTDATASTORAGE.CPP
^D:\VISUAL STUDIO\PROJECTS\REPOS\C++ OOP\14.POLYMORPHISM\POLYMORPHISM\MAIN.CPP
/c /I"C:\PROGRAM FILES (X86)\VISUAL LEAK DETECTOR\INCLUDE" /ZI /nologo /W3 /WX- /diagnostics:classic /Od /D _DEBUG /D _CONSOLE /D _UNICODE /D UNICODE /Gm /EHsc /RTC1 /MDd /GS /fp:precise /Zc:wchar_t /Zc:forScope /Zc:inline /Fo"X64\DEBUG\\" /Fd"X64\DEBUG\VC141.PDB" /FR"x64\Debug\\" /Gd /TP D:\VISUAL STUDIO\PROJECTS\REPOS\C++ OOP\14.POLYMORPHISM\POLYMORPHISM\MAIN.CPP
^D:\VISUAL STUDIO\PROJECTS\REPOS\C++ OOP\14.POLYMORPHISM\POLYMORPHISM\USBFLASH.CPP
/c /I"C:\PROGRAM FILES (X86)\VISUAL LEAK DETECTOR\INCLUDE" /ZI /nologo /W3 /WX- /diagnostics:classic /Od /D _DEBUG /D _CONSOLE /D _UNICODE /D UNICODE /Gm /EHsc /RTC1 /MDd /GS /fp:precise /Zc:wchar_t /Zc:forScope /Zc:inline /Fo"X64\DEBUG\\" /Fd"X64\DEBUG\VC141.PDB" /FR"x64\Debug\\" /Gd /TP D:\VISUAL STUDIO\PROJECTS\REPOS\C++ OOP\14.POLYMORPHISM\POLYMORPHISM\USBFLASH.CPP
