^C:\VISUAL STUDIO 2015\PROJECTS\4\ESCAPE SEQUANCES CHART\ESCAPE SEQUANCES CHART\MAIN.CPP
C:\VISUAL STUDIO 2015\PROJECTS\4\ESCAPE SEQUANCES CHART\ESCAPE SEQUANCES CHART\DEBUG\VC140.PDB
C:\VISUAL STUDIO 2015\PROJECTS\4\ESCAPE SEQUANCES CHART\ESCAPE SEQUANCES CHART\DEBUG\VC140.IDB
C:\VISUAL STUDIO 2015\PROJECTS\4\ESCAPE SEQUANCES CHART\ESCAPE SEQUANCES CHART\DEBUG\MAIN.OBJ
