^D:\VISUAL STUDIO\REPOS\05\TEMPLATE CLASSES\TEMPLATE CLASSES\MATRIX\DEBUG\MAIN.OBJ
/OUT:"D:\VISUAL STUDIO\REPOS\05\TEMPLATE CLASSES\TEMPLATE CLASSES\DEBUG\MATRIX.EXE" /INCREMENTAL /NOLOGO /LIBPATH:"C:\PROGRAM FILES (X86)\VISUAL LEAK DETECTOR\LIB\WIN32" KERNEL32.LIB USER32.LIB GDI32.LIB WINSPOOL.LIB COMDLG32.LIB ADVAPI32.LIB SHELL32.LIB OLE32.LIB OLEAUT32.LIB UUID.LIB ODBC32.LIB ODBCCP32.LIB /MANIFEST /MANIFESTUAC:"level='asInvoker' uiAccess='false'" /manifest:embed /DEBUG:FASTLINK /PDB:"D:\VISUAL STUDIO\REPOS\05\TEMPLATE CLASSES\TEMPLATE CLASSES\DEBUG\MATRIX.PDB" /SUBSYSTEM:CONSOLE /TLBID:1 /DYNAMICBASE /NXCOMPAT /IMPLIB:"D:\VISUAL STUDIO\REPOS\05\TEMPLATE CLASSES\TEMPLATE CLASSES\DEBUG\MATRIX.LIB" /MACHINE:X86 DEBUG\MAIN.OBJ
^D:\VISUAL STUDIO\REPOS\05\TEMPLATE CLASSES\TEMPLATE CLASSES\MATRIX\DEBUG\CFRACTION.OBJ|D:\VISUAL STUDIO\REPOS\05\TEMPLATE CLASSES\TEMPLATE CLASSES\MATRIX\DEBUG\MAIN.OBJ
/OUT:"D:\VISUAL STUDIO\REPOS\05\TEMPLATE CLASSES\TEMPLATE CLASSES\DEBUG\MATRIX.EXE" /INCREMENTAL /NOLOGO /LIBPATH:"C:\PROGRAM FILES (X86)\VISUAL LEAK DETECTOR\LIB\WIN32" KERNEL32.LIB USER32.LIB GDI32.LIB WINSPOOL.LIB COMDLG32.LIB ADVAPI32.LIB SHELL32.LIB OLE32.LIB OLEAUT32.LIB UUID.LIB ODBC32.LIB ODBCCP32.LIB /MANIFEST /MANIFESTUAC:"level='asInvoker' uiAccess='false'" /manifest:embed /DEBUG:FASTLINK /PDB:"D:\VISUAL STUDIO\REPOS\05\TEMPLATE CLASSES\TEMPLATE CLASSES\DEBUG\MATRIX.PDB" /SUBSYSTEM:CONSOLE /TLBID:1 /DYNAMICBASE /NXCOMPAT /IMPLIB:"D:\VISUAL STUDIO\REPOS\05\TEMPLATE CLASSES\TEMPLATE CLASSES\DEBUG\MATRIX.LIB" /MACHINE:X86 DEBUG\CFRACTION.OBJDEBUG\MAIN.OBJ
