^C:\VISUAL STUDIO 2015\PROJECTS\3\SHIFT2\SHIFT2\DEBUG\MAIN.OBJ
/OUT:"C:\VISUAL STUDIO 2015\PROJECTS\3\SHIFT2\DEBUG\SHIFT2.EXE" /INCREMENTAL /NOLOGO KERNEL32.LIB USER32.LIB GDI32.LIB WINSPOOL.LIB COMDLG32.LIB ADVAPI32.LIB SHELL32.LIB OLE32.LIB OLEAUT32.LIB UUID.LIB ODBC32.LIB ODBCCP32.LIB /MANIFEST /MANIFESTUAC:"level='asInvoker' uiAccess='false'" /manifest:embed /DEBUG /PDB:"C:\VISUAL STUDIO 2015\PROJECTS\3\SHIFT2\DEBUG\SHIFT2.PDB" /SUBSYSTEM:CONSOLE /TLBID:1 /DYNAMICBASE /NXCOMPAT /IMPLIB:"C:\VISUAL STUDIO 2015\PROJECTS\3\SHIFT2\DEBUG\SHIFT2.LIB" /MACHINE:X86 DEBUG\MAIN.OBJ
^C:\VISUAL STUDIO 2015\PROJECTS\3\10.SHIFT2\SHIFT2\DEBUG\MAIN.OBJ
/OUT:"C:\VISUAL STUDIO 2015\PROJECTS\3\10.SHIFT2\DEBUG\SHIFT2.EXE" /INCREMENTAL /NOLOGO KERNEL32.LIB USER32.LIB GDI32.LIB WINSPOOL.LIB COMDLG32.LIB ADVAPI32.LIB SHELL32.LIB OLE32.LIB OLEAUT32.LIB UUID.LIB ODBC32.LIB ODBCCP32.LIB /MANIFEST /MANIFESTUAC:"level='asInvoker' uiAccess='false'" /manifest:embed /DEBUG /PDB:"C:\VISUAL STUDIO 2015\PROJECTS\3\10.SHIFT2\DEBUG\SHIFT2.PDB" /SUBSYSTEM:CONSOLE /TLBID:1 /DYNAMICBASE /NXCOMPAT /IMPLIB:"C:\VISUAL STUDIO 2015\PROJECTS\3\10.SHIFT2\DEBUG\SHIFT2.LIB" /MACHINE:X86 DEBUG\MAIN.OBJ
