^D:\VISUAL STUDIO\REPOS\05\TEMPLATE CLASSES\TEMPLATE CLASSES\TEMPLATE CLASSES\DEBUG\CFRACTION.OBJ|D:\VISUAL STUDIO\REPOS\05\TEMPLATE CLASSES\TEMPLATE CLASSES\TEMPLATE CLASSES\DEBUG\MAIN.OBJ
C:\PROGRAM FILES (X86)\MICROSOFT VISUAL STUDIO\2017\ENTERPRISE\VC\TOOLS\MSVC\14.10.25017\BIN\HOSTX86\X86\VCTIP.EXE
C:\WINDOWS\SYSTEM32\TZRES.DLL
C:\WINDOWS\GLOBALIZATION\SORTING\SORTDEFAULT.NLS
C:\PROGRAM FILES (X86)\WINDOWS KITS\10\LIB\10.0.15063.0\UM\X86\KERNEL32.LIB
C:\PROGRAM FILES (X86)\WINDOWS KITS\10\LIB\10.0.15063.0\UM\X86\USER32.LIB
C:\PROGRAM FILES (X86)\WINDOWS KITS\10\LIB\10.0.15063.0\UM\X86\GDI32.LIB
C:\PROGRAM FILES (X86)\WINDOWS KITS\10\LIB\10.0.15063.0\UM\X86\WINSPOOL.LIB
C:\PROGRAM FILES (X86)\WINDOWS KITS\10\LIB\10.0.15063.0\UM\X86\COMDLG32.LIB
C:\PROGRAM FILES (X86)\WINDOWS KITS\10\LIB\10.0.15063.0\UM\X86\ADVAPI32.LIB
C:\PROGRAM FILES (X86)\WINDOWS KITS\10\LIB\10.0.15063.0\UM\X86\SHELL32.LIB
C:\PROGRAM FILES (X86)\WINDOWS KITS\10\LIB\10.0.15063.0\UM\X86\OLE32.LIB
C:\PROGRAM FILES (X86)\WINDOWS KITS\10\LIB\10.0.15063.0\UM\X86\OLEAUT32.LIB
C:\PROGRAM FILES (X86)\WINDOWS KITS\10\LIB\10.0.15063.0\UM\X86\UUID.LIB
C:\PROGRAM FILES (X86)\WINDOWS KITS\10\LIB\10.0.15063.0\UM\X86\ODBC32.LIB
C:\PROGRAM FILES (X86)\WINDOWS KITS\10\LIB\10.0.15063.0\UM\X86\ODBCCP32.LIB
D:\VISUAL STUDIO\REPOS\05\TEMPLATE CLASSES\TEMPLATE CLASSES\TEMPLATE CLASSES\DEBUG\CFRACTION.OBJ
D:\VISUAL STUDIO\REPOS\05\TEMPLATE CLASSES\TEMPLATE CLASSES\TEMPLATE CLASSES\DEBUG\MAIN.OBJ
C:\PROGRAM FILES (X86)\MICROSOFT VISUAL STUDIO\2017\ENTERPRISE\VC\TOOLS\MSVC\14.10.25017\LIB\X86\MSVCPRTD.LIB
C:\PROGRAM FILES (X86)\MICROSOFT VISUAL STUDIO\2017\ENTERPRISE\VC\TOOLS\MSVC\14.10.25017\LIB\X86\MSVCRTD.LIB
C:\PROGRAM FILES (X86)\MICROSOFT VISUAL STUDIO\2017\ENTERPRISE\VC\TOOLS\MSVC\14.10.25017\LIB\X86\OLDNAMES.LIB
C:\PROGRAM FILES (X86)\MICROSOFT VISUAL STUDIO\2017\ENTERPRISE\VC\TOOLS\MSVC\14.10.25017\LIB\X86\VCRUNTIMED.LIB
C:\PROGRAM FILES (X86)\WINDOWS KITS\10\LIB\10.0.15063.0\UCRT\X86\UCRTD.LIB
^D:\VISUAL STUDIO\PROJECTS\ООП C++\08.TEMPLATE CLASSES\TEMPLATE CLASSES - STANDART MEMORY ALLOCATION\TEMPLATE CLASSES\DEBUG\CFRACTION.OBJ|D:\VISUAL STUDIO\PROJECTS\ООП C++\08.TEMPLATE CLASSES\TEMPLATE CLASSES - STANDART MEMORY ALLOCATION\TEMPLATE CLASSES\DEBUG\MAIN.OBJ
C:\PROGRAM FILES (X86)\MICROSOFT VISUAL STUDIO\2017\ENTERPRISE\VC\TOOLS\MSVC\14.10.25017\BIN\HOSTX86\X86\VCTIP.EXE
C:\WINDOWS\SYSTEM32\TZRES.DLL
C:\WINDOWS\GLOBALIZATION\SORTING\SORTDEFAULT.NLS
C:\PROGRAM FILES (X86)\WINDOWS KITS\10\LIB\10.0.15063.0\UM\X86\KERNEL32.LIB
C:\PROGRAM FILES (X86)\WINDOWS KITS\10\LIB\10.0.15063.0\UM\X86\USER32.LIB
C:\PROGRAM FILES (X86)\WINDOWS KITS\10\LIB\10.0.15063.0\UM\X86\GDI32.LIB
C:\PROGRAM FILES (X86)\WINDOWS KITS\10\LIB\10.0.15063.0\UM\X86\WINSPOOL.LIB
C:\PROGRAM FILES (X86)\WINDOWS KITS\10\LIB\10.0.15063.0\UM\X86\COMDLG32.LIB
C:\PROGRAM FILES (X86)\WINDOWS KITS\10\LIB\10.0.15063.0\UM\X86\ADVAPI32.LIB
C:\PROGRAM FILES (X86)\WINDOWS KITS\10\LIB\10.0.15063.0\UM\X86\SHELL32.LIB
C:\PROGRAM FILES (X86)\WINDOWS KITS\10\LIB\10.0.15063.0\UM\X86\OLE32.LIB
C:\PROGRAM FILES (X86)\WINDOWS KITS\10\LIB\10.0.15063.0\UM\X86\OLEAUT32.LIB
C:\PROGRAM FILES (X86)\WINDOWS KITS\10\LIB\10.0.15063.0\UM\X86\UUID.LIB
C:\PROGRAM FILES (X86)\WINDOWS KITS\10\LIB\10.0.15063.0\UM\X86\ODBC32.LIB
C:\PROGRAM FILES (X86)\WINDOWS KITS\10\LIB\10.0.15063.0\UM\X86\ODBCCP32.LIB
D:\VISUAL STUDIO\PROJECTS\ООП C++\08.TEMPLATE CLASSES\TEMPLATE CLASSES - STANDART MEMORY ALLOCATION\TEMPLATE CLASSES\DEBUG\CFRACTION.OBJ
D:\VISUAL STUDIO\PROJECTS\ООП C++\08.TEMPLATE CLASSES\TEMPLATE CLASSES - STANDART MEMORY ALLOCATION\TEMPLATE CLASSES\DEBUG\MAIN.OBJ
C:\PROGRAM FILES (X86)\MICROSOFT VISUAL STUDIO\2017\ENTERPRISE\VC\TOOLS\MSVC\14.10.25017\LIB\X86\MSVCPRTD.LIB
C:\PROGRAM FILES (X86)\MICROSOFT VISUAL STUDIO\2017\ENTERPRISE\VC\TOOLS\MSVC\14.10.25017\LIB\X86\MSVCRTD.LIB
C:\PROGRAM FILES (X86)\MICROSOFT VISUAL STUDIO\2017\ENTERPRISE\VC\TOOLS\MSVC\14.10.25017\LIB\X86\OLDNAMES.LIB
C:\PROGRAM FILES (X86)\MICROSOFT VISUAL STUDIO\2017\ENTERPRISE\VC\TOOLS\MSVC\14.10.25017\LIB\X86\VCRUNTIMED.LIB
C:\PROGRAM FILES (X86)\WINDOWS KITS\10\LIB\10.0.15063.0\UCRT\X86\UCRTD.LIB
C:\PROGRAM FILES (X86)\WINDOWS KITS\10\BIN\10.0.15063.0\X86\RC.EXE
C:\PROGRAM FILES (X86)\MICROSOFT VISUAL STUDIO\2017\ENTERPRISE\VC\TOOLS\MSVC\14.10.25017\BIN\HOSTX86\X86\CVTRES.EXE
C:\WINDOWS\SYSTEM32\RSAENH.DLL
