^C:\VISUAL STUDIO 2015\PROJECTS\C C++\24\MULTIDIMENSIONAL DYNAMIC ARRAYS\MULTIDIMENSIONAL DYNAMIC ARRAYS\FUNCTIONS.CPP|C:\VISUAL STUDIO 2015\PROJECTS\C C++\24\MULTIDIMENSIONAL DYNAMIC ARRAYS\MULTIDIMENSIONAL DYNAMIC ARRAYS\MAIN.CPP
C:\VISUAL STUDIO 2015\PROJECTS\C C++\24\MULTIDIMENSIONAL DYNAMIC ARRAYS\MULTIDIMENSIONAL DYNAMIC ARRAYS\DEBUG\VC140.PDB
C:\VISUAL STUDIO 2015\PROJECTS\C C++\24\MULTIDIMENSIONAL DYNAMIC ARRAYS\MULTIDIMENSIONAL DYNAMIC ARRAYS\DEBUG\VC140.IDB
C:\VISUAL STUDIO 2015\PROJECTS\C C++\24\MULTIDIMENSIONAL DYNAMIC ARRAYS\MULTIDIMENSIONAL DYNAMIC ARRAYS\DEBUG\FUNCTIONS.OBJ
^C:\VISUAL STUDIO 2015\PROJECTS\C C++\24\MULTIDIMENSIONAL DYNAMIC ARRAYS\MULTIDIMENSIONAL DYNAMIC ARRAYS\FUNCTIONS.CPP
C:\VISUAL STUDIO 2015\PROJECTS\C C++\24\MULTIDIMENSIONAL DYNAMIC ARRAYS\MULTIDIMENSIONAL DYNAMIC ARRAYS\DEBUG\VC140.PDB
^C:\VISUAL STUDIO 2015\PROJECTS\C C++\24\MULTIDIMENSIONAL DYNAMIC ARRAYS\MULTIDIMENSIONAL DYNAMIC ARRAYS\MAIN.CPP
C:\VISUAL STUDIO 2015\PROJECTS\C C++\24\MULTIDIMENSIONAL DYNAMIC ARRAYS\MULTIDIMENSIONAL DYNAMIC ARRAYS\DEBUG\VC140.PDB
C:\VISUAL STUDIO 2015\PROJECTS\C C++\24\MULTIDIMENSIONAL DYNAMIC ARRAYS\MULTIDIMENSIONAL DYNAMIC ARRAYS\DEBUG\VC140.IDB
C:\VISUAL STUDIO 2015\PROJECTS\C C++\24\MULTIDIMENSIONAL DYNAMIC ARRAYS\MULTIDIMENSIONAL DYNAMIC ARRAYS\DEBUG\MAIN.OBJ
