^C:\VISUAL STUDIO 2015\PROJECTS\6\SEQUANCE OF SYMBOLS\SEQUANCE OF SYMBOLS\DEBUG\MAIN.OBJ
C:\VISUAL STUDIO 2015\PROJECTS\6\SEQUANCE OF SYMBOLS\DEBUG\SEQUANCE OF SYMBOLS.ILK
C:\VISUAL STUDIO 2015\PROJECTS\6\SEQUANCE OF SYMBOLS\DEBUG\SEQUANCE OF SYMBOLS.EXE
C:\VISUAL STUDIO 2015\PROJECTS\6\SEQUANCE OF SYMBOLS\DEBUG\SEQUANCE OF SYMBOLS.PDB
