^C:\VISUAL STUDIO 2015\PROJECTS\3\357 TO 307\357 TO 307\DEBUG\MAIN.OBJ
C:\VISUAL STUDIO 2015\PROJECTS\3\357 TO 307\DEBUG\357 TO 307.ILK
C:\VISUAL STUDIO 2015\PROJECTS\3\357 TO 307\DEBUG\357 TO 307.EXE
C:\VISUAL STUDIO 2015\PROJECTS\3\357 TO 307\DEBUG\357 TO 307.PDB
^C:\VISUAL STUDIO 2015\PROJECTS\3\1.357 TO 307\357 TO 307\DEBUG\MAIN.OBJ
C:\VISUAL STUDIO 2015\PROJECTS\3\1.357 TO 307\DEBUG\357 TO 307.ILK
C:\VISUAL STUDIO 2015\PROJECTS\3\1.357 TO 307\DEBUG\357 TO 307.EXE
C:\VISUAL STUDIO 2015\PROJECTS\3\1.357 TO 307\DEBUG\357 TO 307.PDB
