^D:\ПРОГРАММИРОВАНИЕ\ШАГ\ДЗ\C\3.ВВОД ДАННЫХ.АРИФМЕТИЧЕСКИЕ ОПЕРАТОРЫ\9.SHIFT\SHIFT\MAIN.CPP
D:\Программирование\ШАГ\ДЗ\C\3.Ввод данных.Арифметические операторы\9.SHIFT\SHIFT\DEBUG\VC140.PDB
D:\Программирование\ШАГ\ДЗ\C\3.Ввод данных.Арифметические операторы\9.SHIFT\SHIFT\DEBUG\VC140.IDB
D:\Программирование\ШАГ\ДЗ\C\3.Ввод данных.Арифметические операторы\9.SHIFT\SHIFT\DEBUG\MAIN.OBJ
