2 + 2 * 2 = 6
(2 + 2) * 2 = 8
sqrt(2^4) = 4
sqrt(2*(2+2)*2) = 4
4 + lg(5 * cos(70)) = 4.50059
sqrt(81) * 10 + 8 * (sin(sqrt(16) * 10)) + 33 - tg(14) = 121.716
sin(cos(tg(lg(ln(sqrt(100^2)))))) = 0.651823
sqrt(sin(cos(tg(lg(ln(sqrt(100^2))))))) * 100^5 / (11^3 + sqrt(935)) = 5.92956e+06
(sqrt(sin(cos(tg(lg(ln(sqrt(100^2))))))) * 100^5 / (11^3 + sqrt(935))) / 1000 = 5929.56
(sqrt(sin(cos(tg(lg(ln(sqrt(100^2))))))) * 100^5 / (11^3 + sqrt(935))) / 100 = 59295.6
-(sqrt(sin(cos(tg(lg(ln(sqrt(100^2))))))) * 100^5 / (11^3 + sqrt(935))) / 100 = -59295.6
(sqrt(sin(cos(tg(lg(ln(sqrt(100^2))))))) * 100^5 / (11^3 + sqrt(935))) / 100 - 0.2 = 59295.4
-(sqrt(sin(cos(tg(lg(ln(sqrt(100^2))))))) * 100^5 / (11^3 + sqrt(935))) / 100 - 0.2 = -59295.8
sqrt(16) = 4
