^C:\VISUAL STUDIO 2015\PROJECTS\16\ARRAYS TWO_DIMENSIONAL\ARRAYS TWO_DIMENSIONAL\MAIN.CPP
/c /ZI /nologo /W3 /WX- /sdl /Od /Oy- /D WIN32 /D _DEBUG /D _CONSOLE /D _UNICODE /D UNICODE /Gm /EHsc /RTC1 /MDd /GS /fp:precise /Zc:wchar_t /Zc:forScope /Zc:inline /Fo"DEBUG\\" /Fd"DEBUG\VC140.PDB" /Gd /TP /analyze- C:\VISUAL STUDIO 2015\PROJECTS\16\ARRAYS TWO_DIMENSIONAL\ARRAYS TWO_DIMENSIONAL\MAIN.CPP
^D:\VISUAL STUDIO\PROJECTS\C C++\16\ARRAYS TWO_DIMENSIONAL\ARRAYS TWO_DIMENSIONAL\MAIN.CPP
/c /I"C:\PROGRAM FILES (X86)\VISUAL LEAK DETECTOR\INCLUDE" /ZI /nologo /W3 /WX- /diagnostics:classic /sdl /Od /Oy- /D WIN32 /D _DEBUG /D _CONSOLE /D _UNICODE /D UNICODE /Gm /EHsc /RTC1 /MDd /GS /fp:precise /Zc:wchar_t /Zc:forScope /Zc:inline /Fo"DEBUG\\" /Fd"DEBUG\VC141.PDB" /Gd /TP /analyze- D:\VISUAL STUDIO\PROJECTS\C C++\16\ARRAYS TWO_DIMENSIONAL\ARRAYS TWO_DIMENSIONAL\MAIN.CPP
