^C:\VISUAL STUDIO 2015\PROJECTS\10\FOR\FOR\MAIN.CPP
C:\VISUAL STUDIO 2015\PROJECTS\10\FOR\FOR\DEBUG\VC140.PDB
C:\VISUAL STUDIO 2015\PROJECTS\10\FOR\FOR\DEBUG\VC140.IDB
C:\VISUAL STUDIO 2015\PROJECTS\10\FOR\FOR\DEBUG\MAIN.OBJ
