^C:\VISUAL STUDIO 2015\PROJECTS\2\4.CIRCLE S\4.CIRCLE S\DEBUG\MAIN.OBJ
C:\VISUAL STUDIO 2015\PROJECTS\2\4.CIRCLE S\DEBUG\4.CIRCLE S.ILK
C:\VISUAL STUDIO 2015\PROJECTS\2\4.CIRCLE S\DEBUG\4.CIRCLE S.EXE
C:\VISUAL STUDIO 2015\PROJECTS\2\4.CIRCLE S\DEBUG\4.CIRCLE S.PDB
^D:\ПРОГРАММИРОВАНИЕ\ШАГ\ДЗ\C\2.ВВОД ДАННЫХ.АРИФМЕТИЧЕСКИЕ ОПЕРАТОРЫ\ДЗ2 VADYM ROGACHKO\4.CIRCLE S\4.CIRCLE S\DEBUG\MAIN.OBJ
D:\Программирование\ШАГ\ДЗ\C\2.Ввод данных.Арифметические операторы\ДЗ2 VADYM ROGACHKO\4.CIRCLE S\DEBUG\4.CIRCLE S.ILK
D:\Программирование\ШАГ\ДЗ\C\2.Ввод данных.Арифметические операторы\ДЗ2 VADYM ROGACHKO\4.CIRCLE S\DEBUG\4.CIRCLE S.EXE
D:\ПРОГРАММИРОВАНИЕ\ШАГ\ДЗ\C\2.ВВОД ДАННЫХ.АРИФМЕТИЧЕСКИЕ ОПЕРАТОРЫ\ДЗ2 VADYM ROGACHKO\4.CIRCLE S\DEBUG\4.CIRCLE S.PDB
