^C:\VISUAL STUDIO 2015\PROJECTS\2\4.CIRCLE S\4.CIRCLE S\DEBUG\MAIN.OBJ
/OUT:"C:\VISUAL STUDIO 2015\PROJECTS\2\4.CIRCLE S\DEBUG\4.CIRCLE S.EXE" /INCREMENTAL /NOLOGO KERNEL32.LIB USER32.LIB GDI32.LIB WINSPOOL.LIB COMDLG32.LIB ADVAPI32.LIB SHELL32.LIB OLE32.LIB OLEAUT32.LIB UUID.LIB ODBC32.LIB ODBCCP32.LIB /MANIFEST /MANIFESTUAC:"level='asInvoker' uiAccess='false'" /manifest:embed /DEBUG /PDB:"C:\VISUAL STUDIO 2015\PROJECTS\2\4.CIRCLE S\DEBUG\4.CIRCLE S.PDB" /SUBSYSTEM:CONSOLE /TLBID:1 /DYNAMICBASE /NXCOMPAT /IMPLIB:"C:\VISUAL STUDIO 2015\PROJECTS\2\4.CIRCLE S\DEBUG\4.CIRCLE S.LIB" /MACHINE:X86 DEBUG\MAIN.OBJ
^D:\ПРОГРАММИРОВАНИЕ\ШАГ\ДЗ\C\2.ВВОД ДАННЫХ.АРИФМЕТИЧЕСКИЕ ОПЕРАТОРЫ\ДЗ2 VADYM ROGACHKO\4.CIRCLE S\4.CIRCLE S\DEBUG\MAIN.OBJ
/OUT:"D:\ПРОГРАММИРОВАНИЕ\ШАГ\ДЗ\C\2.ВВОД ДАННЫХ.АРИФМЕТИЧЕСКИЕ ОПЕРАТОРЫ\ДЗ2 VADYM ROGACHKO\4.CIRCLE S\DEBUG\4.CIRCLE S.EXE" /INCREMENTAL /NOLOGO KERNEL32.LIB USER32.LIB GDI32.LIB WINSPOOL.LIB COMDLG32.LIB ADVAPI32.LIB SHELL32.LIB OLE32.LIB OLEAUT32.LIB UUID.LIB ODBC32.LIB ODBCCP32.LIB /MANIFEST /MANIFESTUAC:"level='asInvoker' uiAccess='false'" /manifest:embed /DEBUG /PDB:"D:\ПРОГРАММИРОВАНИЕ\ШАГ\ДЗ\C\2.ВВОД ДАННЫХ.АРИФМЕТИЧЕСКИЕ ОПЕРАТОРЫ\ДЗ2 VADYM ROGACHKO\4.CIRCLE S\DEBUG\4.CIRCLE S.PDB" /SUBSYSTEM:CONSOLE /TLBID:1 /DYNAMICBASE /NXCOMPAT /IMPLIB:"D:\ПРОГРАММИРОВАНИЕ\ШАГ\ДЗ\C\2.ВВОД ДАННЫХ.АРИФМЕТИЧЕСКИЕ ОПЕРАТОРЫ\ДЗ2 VADYM ROGACHKO\4.CIRCLE S\DEBUG\4.CIRCLE S.LIB" /MACHINE:X86 DEBUG\MAIN.OBJ
