^C:\VISUAL STUDIO 2015\PROJECTS\4\4.MONEY\4.MONEY\MAIN.CPP
C:\VISUAL STUDIO 2015\PROJECTS\4\4.MONEY\4.MONEY\DEBUG\VC140.PDB
C:\VISUAL STUDIO 2015\PROJECTS\4\4.MONEY\4.MONEY\DEBUG\VC140.IDB
C:\VISUAL STUDIO 2015\PROJECTS\4\4.MONEY\4.MONEY\DEBUG\MAIN.OBJ
