^C:\VISUAL STUDIO 2015\PROJECTS\3\DELNUM\DELNUM\MAIN.CPP
C:\VISUAL STUDIO 2015\PROJECTS\3\DELNUM\DELNUM\DEBUG\VC140.PDB
C:\VISUAL STUDIO 2015\PROJECTS\3\DELNUM\DELNUM\DEBUG\VC140.IDB
C:\VISUAL STUDIO 2015\PROJECTS\3\DELNUM\DELNUM\DEBUG\MAIN.OBJ
