^C:\VISUAL STUDIO 2015\PROJECTS\ООП C++\02\ACADEMY GROUP\ACADEMY GROUP\DEBUG\CACADEMYGROUP.OBJ|C:\VISUAL STUDIO 2015\PROJECTS\ООП C++\02\ACADEMY GROUP\ACADEMY GROUP\DEBUG\CSTUDENT.OBJ|C:\VISUAL STUDIO 2015\PROJECTS\ООП C++\02\ACADEMY GROUP\ACADEMY GROUP\DEBUG\MAIN.OBJ
/OUT:"C:\VISUAL STUDIO 2015\PROJECTS\ООП C++\02\ACADEMY GROUP\DEBUG\ACADEMY GROUP.EXE" /INCREMENTAL /NOLOGO /LIBPATH:"C:\PROGRAM FILES (X86)\VISUAL LEAK DETECTOR\LIB\WIN32" KERNEL32.LIB USER32.LIB GDI32.LIB WINSPOOL.LIB COMDLG32.LIB ADVAPI32.LIB SHELL32.LIB OLE32.LIB OLEAUT32.LIB UUID.LIB ODBC32.LIB ODBCCP32.LIB /MANIFEST /MANIFESTUAC:"level='asInvoker' uiAccess='false'" /manifest:embed /DEBUG /PDB:"C:\VISUAL STUDIO 2015\PROJECTS\ООП C++\02\ACADEMY GROUP\DEBUG\ACADEMY GROUP.PDB" /SUBSYSTEM:CONSOLE /TLBID:1 /DYNAMICBASE /NXCOMPAT /IMPLIB:"C:\VISUAL STUDIO 2015\PROJECTS\ООП C++\02\ACADEMY GROUP\DEBUG\ACADEMY GROUP.LIB" /MACHINE:X86 DEBUG\CACADEMYGROUP.OBJDEBUG\CSTUDENT.OBJDEBUG\MAIN.OBJ
^C:\USERS\USER\GOOGLE ДИСК\PROJECTS\ООП C++\02\ACADEMY GROUP\ACADEMY GROUP\DEBUG\CACADEMYGROUP.OBJ|C:\USERS\USER\GOOGLE ДИСК\PROJECTS\ООП C++\02\ACADEMY GROUP\ACADEMY GROUP\DEBUG\CSTUDENT.OBJ|C:\USERS\USER\GOOGLE ДИСК\PROJECTS\ООП C++\02\ACADEMY GROUP\ACADEMY GROUP\DEBUG\MAIN.OBJ
/OUT:"C:\USERS\USER\GOOGLE ДИСК\PROJECTS\ООП C++\02\ACADEMY GROUP\DEBUG\ACADEMY GROUP.EXE" /INCREMENTAL /NOLOGO /LIBPATH:"C:\PROGRAM FILES (X86)\VISUAL LEAK DETECTOR\LIB\WIN32" KERNEL32.LIB USER32.LIB GDI32.LIB WINSPOOL.LIB COMDLG32.LIB ADVAPI32.LIB SHELL32.LIB OLE32.LIB OLEAUT32.LIB UUID.LIB ODBC32.LIB ODBCCP32.LIB /MANIFEST /MANIFESTUAC:"level='asInvoker' uiAccess='false'" /manifest:embed /DEBUG /PDB:"C:\USERS\USER\GOOGLE ДИСК\PROJECTS\ООП C++\02\ACADEMY GROUP\DEBUG\ACADEMY GROUP.PDB" /SUBSYSTEM:CONSOLE /TLBID:1 /DYNAMICBASE /NXCOMPAT /IMPLIB:"C:\USERS\USER\GOOGLE ДИСК\PROJECTS\ООП C++\02\ACADEMY GROUP\DEBUG\ACADEMY GROUP.LIB" /MACHINE:X86 DEBUG\CACADEMYGROUP.OBJDEBUG\CSTUDENT.OBJDEBUG\MAIN.OBJ
